Data Mining and Text Mining - Final Project
…
Next, we clean the raw text and put it in a new column called clean_text in a new dataframe, corona_tweets.

corona_tweets$clean_text <- clean_tweets(corona_tweets_raw$text)

corona_tweets

## # A tibble: 41,157 x 3
##    Time    text                           clean_text                       
##    <chr>   <chr>                          <chr>                            
##  1 16-03- @MeNyrbie @Phil_Gahan @Chrisi "  "                             
##  2 16-03- advice Talk to your neighbour advice talk to your neighbours f
##  3 16-03- Coronavirus Australia: Woolwo coronavirus australia woolworths
##  4 16-03- "My food stock is not the onl my food stock is not the only on
##  5 16-03- "Me, ready to go at supermark me ready to go at supermarket du
##  6 16-03- "As news of the region\u0092s as news of the regions first con
##  7 16-03- "Cashier at grocery store was cashier at grocery store was sha
##  8 16-03- "Was at the supermarket today was at the supermarket today did
##  9 16-03- Due to COVID-19 our retail st due to covid19 our retail store 
## 10 16-03- For corona prevention,we shou for corona preventionwe should s
## #  with 41,147 more rows

Well take a quick peek at the most used words overall in order to do a quick sanity check that the data makes sense.

# view most-used words
 corona_tweets %>% 
  unnest_tokens(word, clean_text) %>% # tokenization
  anti_join(stop_words) %>%  #remove stop words
  count(word, sort = TRUE) #count words

## Joining, by = "word"

## # A tibble: 49,417 x 2
##    word            n
##    <chr>       <int>
##  1 coronavirus 16995
##  2 covid19     16057
##  3 prices       7852
##  4 food         6997
##  5 supermarket  6968
##  6 store        6769
##  7 grocery      6195
##  8 people       5473
##  9 consumer     4414
## 10 19           3705
## #  with 49,407 more rows
…
## Joining, by = "word"

## Selecting by tf_idf

corona_tweet_tf_idf

## # A tibble: 817 x 6
##    Time       word               n       tf   idf   tf_idf
##    <chr>      <chr>          <int>    <dbl> <dbl>    <dbl>
##  1 23-03-2020 compromises        3 0.000102 2.71  0.000275
##  2 23-03-2020 seinfeld           3 0.000102 2.71  0.000275
##  3 19-03-2020 paracetamol       15 0.000318 0.916 0.000291
##  4 18-03-2020 rationing         16 0.000391 0.762 0.000298
##  5 08-04-2020 britney            3 0.000111 2.71  0.000300
##  6 08-04-2020 coded              3 0.000111 2.71  0.000300
##  7 23-03-2020 additive           5 0.000169 1.79  0.000303
##  8 23-03-2020 mondaythoughts     5 0.000169 1.79  0.000303
##  9 19-03-2020 quarentinelife    12 0.000254 1.20  0.000306
## 10 19-03-2020 covid19on          9 0.000191 1.61  0.000307
## #  with 807 more rows
…
Using cast_dtm()

dtm_text <- corona_tweet_tf_idf %>% 
  count(Time, word, sort = TRUE) %>% 
  cast_dtm(Time, word, n)

lda_text <- LDA(dtm_text, k = 2, control = list(seed = 1234))
lda_text

## A LDA_VEM topic model with 2 topics.

text_topics <- tidy(lda_text, matrix = "beta")
text_topics

## # A tibble: 1,466 x 3
##    topic term              beta
##    <int> <chr>            <dbl>
##  1     1 aja           2.67e- 3
##  2     2 aja           2.33e-86
##  3     1 aprilfoolsday 2.67e- 3
##  4     2 aprilfoolsday 1.06e-87
##  5     1 boohoo        2.67e- 3
##  6     2 boohoo        5.59e-88
##  7     1 chsl          2.67e- 3
##  8     2 chsl          1.87e-86
##  9     1 claus         2.67e- 3
## 10     2 claus         2.93e-86
## #  with 1,456 more rows

top_terms <- text_topics %>% 
  group_by(topic) %>% 
  top_n(10, beta) %>% 
  ungroup() %>% 
  arrange(topic, -beta)

top_terms

## # A tibble: 63 x 3
##    topic term                beta
##    <int> <chr>              <dbl>
##  1     1 tuesdaythoughts  0.00802
##  2     1 covid2019        0.00535
##  3     1 saturdaymorning  0.00535
##  4     1 saturdaythoughts 0.00535
##  5     1 harper           0.00535
##  6     1 woods            0.00535
##  7     1 covid19pandemic  0.00535
##  8     1 thursdaythoughts 0.00267
##  9     1 lockdowneffect   0.00267
## 10     1 contestalert     0.00267
## #  with 53 more rows
…
Bigrams

bigram_filtered <- corona_tweets %>% 
  unnest_tokens(bigram, text, token = "ngrams", n = 2) %>% 
  separate(bigram, into = c("word1", "word2"), sep = " ") %>% 
  filter(!word1 %in% stop_words$word) %>% 
  filter(!word2 %in% stop_words$word) %>%
  filter(!word1 %in% c("https", "19", "t.co")) %>% 
  filter(!word2 %in% c("https", "19", "t.co")) %>% 
  count(word1, word2, sort = TRUE) %>% 
  filter(n > 140)
  
bigram_filtered

## # A tibble: 54 x 3
##    word1       word2           n
##    <chr>       <chr>       <int>
##  1 grocery     store        4775
##  2 hand        sanitizer    1539
##  3 coronavirus covid19      1379
##  4 online      shopping     1352
##  5 toilet      paper        1239
##  6 covid19     coronavirus  1155
##  7 panic       buying       1153
##  8 oil         prices        988
##  9 coronavirus pandemic      756
## 10 social      distancing    644
## #  with 44 more rows
…
trigram_filtered <- corona_tweets %>% 
  unnest_tokens(trigram, text, token = "ngrams", n = 3) %>% 
  separate(trigram, into = c("word1", "word2", "word3"), sep = " ") %>% 
  filter(!word1 %in% stop_words$word) %>% 
  filter(!word2 %in% stop_words$word) %>%
  filter(!word3 %in% stop_words$word) %>%
  filter(!word1 %in% c("https", "19", "t.co")) %>% 
  filter(!word2 %in% c("https", "19", "t.co")) %>% 
  filter(!word3 %in% c("https", "19", "t.co")) %>% 
  count(word1, word2, word3, sort = TRUE) %>% 
  filter(n > 25)
  
trigram_filtered

## # A tibble: 78 x 4
##    word1   word2       word3         n
##    <chr>   <chr>       <chr>     <int>
##  1 grocery store       workers     432
##  2 grocery store       employees   239
##  3 local   grocery     store       161
##  4 stop    panic       buying      149
##  5 online  grocery     shopping    116
##  6 empty   supermarket shelves      97
##  7 grocery store       clerks       92
##  8 low     oil         prices       89
##  9 food    supply      chain        81
## 10 workers grocery     store        76
## #  with 68 more rows
…
china_bigram_filtered <- corona_tweets %>% 
  unnest_tokens(bigram, text, token = "ngrams", n = 2) %>% 
  separate(bigram, into = c("word1", "word2"), sep = " ") %>% 
  filter(!word1 %in% stop_words$word) %>% 
  filter(!word2 %in% stop_words$word) %>%
  filter(!word1 %in% c("https", "19", "t.co", "3", "4")) %>% 
  filter(!word2 %in% c("https", "19", "t.co", "3", "4")) %>% 
  filter(word1 %in% c("china", "chinese", "wuhan") | word2 %in% c("china", "chinese", "wuhan")) %>% 
  count(word1, word2, sort = TRUE) %>% 
  filter(n > 2)
  
china_bigram_filtered

## # A tibble: 36 x 3
##    word1       word2           n
##    <chr>       <chr>       <int>
##  1 chinese     virus          23
##  2 china       coronavirus    11
##  3 china       amp            10
##  4 chinese     consumer        7
##  5 coronavirus china           7
##  6 stocks      china           7
##  7 china       china           6
##  8 chinese     consumers       6
##  9 china       trade           5
## 10 chinese     woman           5
## #  with 26 more rows
…
usa_bigram_filtered <- corona_tweets %>% 
  unnest_tokens(bigram, text, token = "ngrams", n = 2) %>% 
  separate(bigram, into = c("word1", "word2"), sep = " ") %>% 
  filter(!word1 %in% stop_words$word) %>% 
  filter(!word2 %in% stop_words$word) %>%
  filter(!word1 %in% c("https", "19", "t.co", "2", "3", "4")) %>% 
  filter(!word2 %in% c("https", "19", "t.co", "2", "3", "4")) %>% 
  filter(word1 %in% c("usa", "california", " florida", "trump") | word2 %in% c("usa", "california", "florida", "trump")) %>% 
  count(word1, word2, sort = TRUE) %>% 
  filter(n > 2)
  
usa_bigram_filtered

## # A tibble: 51 x 3
##    word1       word2              n
##    <chr>       <chr>          <int>
##  1 president   trump             31
##  2 donald      trump             22
##  3 trump       coronavirus       19
##  4 trump       administration    12
##  5 california  consumer           8
##  6 south       florida            8
##  7 coronavirus trump              7
##  8 usa         coronavirus        7
##  9 coronavirus usa                6
## 10 covid_19    trump              6
## #  with 41 more rows
…
